<?xml version="1.0" encoding="UTF-8" standalone="no"?>
<!-- Created with Inkscape (http://www.inkscape.org/) -->

<svg
   xmlns:dc="http://purl.org/dc/elements/1.1/"
   xmlns:cc="http://creativecommons.org/ns#"
   xmlns:rdf="http://www.w3.org/1999/02/22-rdf-syntax-ns#"
   xmlns:svg="http://www.w3.org/2000/svg"
   xmlns="http://www.w3.org/2000/svg"
   xmlns:sodipodi="http://sodipodi.sourceforge.net/DTD/sodipodi-0.dtd"
   xmlns:inkscape="http://www.inkscape.org/namespaces/inkscape"
   width="2.3523595in"
   height="2.3509881in"
   viewBox="0 0 211.71236 211.58894"
   id="svg2"
   version="1.1"
   inkscape:version="0.91 r13725"
   sodipodi:docname="DtW-shirt-globe.svg">
  <defs
     id="defs4" />
  <sodipodi:namedview
     id="base"
     pagecolor="#242f3f"
     bordercolor="#666666"
     borderopacity="1.0"
     inkscape:pageopacity="0"
     inkscape:pageshadow="2"
     inkscape:zoom="3.959798"
     inkscape:cx="151.29973"
     inkscape:cy="104.33489"
     inkscape:document-units="px"
     inkscape:current-layer="layer2"
     showgrid="false"
     units="in"
     inkscape:window-width="1918"
     inkscape:window-height="1059"
     inkscape:window-x="1920"
     inkscape:window-y="19"
     inkscape:window-maximized="0"
     fit-margin-top="0"
     fit-margin-left="0"
     fit-margin-right="0"
     fit-margin-bottom="0" />
  <metadata
     id="metadata7">
    <rdf:RDF>
      <cc:Work
         rdf:about="">
        <dc:format>image/svg+xml</dc:format>
        <dc:type
           rdf:resource="http://purl.org/dc/dcmitype/StillImage" />
        <dc:title></dc:title>
      </cc:Work>
    </rdf:RDF>
  </metadata>
  <g
     inkscape:groupmode="layer"
     id="layer2"
     inkscape:label="Background"
     style="display:inline"
     transform="translate(-488.60196,-29.709156)">
    <g
       id="g156"
       transform="matrix(4.2193537,0,0,-4.2193537,905.40468,142.33044)"
       style="fill:#ffffff" />
    <path
       style="fill:#ffffff;fill-opacity:1;fill-rule:nonzero;stroke:none"
       d="m 630.81376,143.02021 -38.82797,-25.70922 0.23044,-0.34903 38.83066,25.70788 -0.23313,0.35037 z"
       id="path5105"
       inkscape:connector-curvature="0" />
    <path
       style="fill:#ffffff;fill-opacity:1;fill-rule:nonzero;stroke:none"
       d="m 653.26331,129.20355 -0.40427,0.0889 -13.7804,-61.687044 0.40427,-0.09029 13.7804,61.688394 z"
       id="path5103"
       inkscape:connector-curvature="0" />
    <path
       style="fill:#ffffff;fill-opacity:1;fill-rule:nonzero;stroke:none"
       d="m 683.3813,114.13338 -44.25065,-46.431037 0.30051,-0.285688 44.252,46.429685 -0.30186,0.28704 z"
       id="path5101"
       inkscape:connector-curvature="0" />
    <path
       style="fill:#ffffff;fill-opacity:1;fill-rule:nonzero;stroke:none"
       d="m 619.33948,103.02968 -0.36924,-0.1954 18.81768,-35.436092 0.37193,0.196747 -18.82037,35.434745 z"
       id="path5099"
       inkscape:connector-curvature="0" />
    <path
       style="fill:#ffffff;fill-opacity:1;fill-rule:nonzero;stroke:none"
       d="m 637.98857,67.703553 -49.66255,3.363572 -0.0283,-0.415056 49.66255,-3.363572 0.0283,0.415056 z"
       id="path5097"
       inkscape:connector-curvature="0" />
    <path
       style="fill:#ffffff;fill-opacity:1;fill-rule:nonzero;stroke:none"
       d="m 592.08377,117.34441 -23.51805,-1.93648 0.035,-0.41641 23.51671,1.93648 -0.0336,0.41641 z"
       id="path5095"
       inkscape:connector-curvature="0" />
    <path
       style="fill:#ffffff;fill-opacity:1;fill-rule:nonzero;stroke:none"
       d="m 603.09879,162.48917 -0.40428,0.1078 -11.631,-44.39887 0.40427,-0.10641 11.63101,44.39753 z"
       id="path5093"
       inkscape:connector-curvature="0" />
    <path
       style="fill:#ffffff;fill-opacity:1;fill-rule:nonzero;stroke:none"
       d="m 593.18663,118.69469 -0.21292,-0.35846 25.79413,-15.09295 0.21426,0.3598 -25.79547,15.09161 z"
       id="path5091"
       inkscape:connector-curvature="0" />
    <path
       style="fill:#ffffff;fill-opacity:1;fill-rule:nonzero;stroke:none"
       d="m 592.30626,117.10696 -0.41236,0.0593 -6.73927,-46.316488 0.41236,-0.06064 6.73927,46.317838 z"
       id="path5089"
       inkscape:connector-curvature="0" />
    <path
       style="fill:#ffffff;fill-opacity:1;fill-rule:nonzero;stroke:none"
       d="m 662.68724,56.48208 c 0.68053,1.542984 -0.0189,3.348748 -1.56185,4.029279 -1.54298,0.68053 -3.34874,-0.02021 -4.02793,-1.563199 -0.68053,-1.542985 0.0189,-3.348748 1.56185,-4.029279 1.54299,-0.68053 3.3474,0.02021 4.02793,1.563199"
       id="path5081"
       inkscape:connector-curvature="0" />
    <path
       style="fill:#ffffff;fill-opacity:1;fill-rule:nonzero;stroke:none"
       d="m 679.83338,76.006832 c 0.68053,1.542984 -0.0176,3.346053 -1.5632,4.029279 -1.54568,0.681878 -3.34875,-0.02021 -4.02793,-1.563199 -0.68053,-1.542985 0.0162,-3.346053 1.56319,-4.029279 1.54434,-0.681878 3.34741,0.01887 4.02794,1.563199"
       id="path5079"
       inkscape:connector-curvature="0" />
    <path
       style="fill:#ffffff;fill-opacity:1;fill-rule:nonzero;stroke:none"
       d="m 635.18681,142.36164 c 0.68053,1.54298 -0.0176,3.34605 -1.55916,4.02658 -1.54837,0.68323 -3.35144,-0.0176 -4.03062,-1.5605 -0.68053,-1.54298 0.0176,-3.3474 1.56454,-4.02928 1.54299,-0.68053 3.34471,0.0189 4.02524,1.5632"
       id="path5077"
       inkscape:connector-curvature="0" />
    <path
       style="fill:#ffffff;fill-opacity:1;fill-rule:nonzero;stroke:none"
       d="m 555.17126,228.49186 c 0.68188,1.54433 -0.0203,3.34605 -1.56454,4.02793 -1.54299,0.68053 -3.34606,-0.0189 -4.02524,-1.5632 -0.68053,-1.54164 0.0162,-3.3447 1.5605,-4.02658 1.54434,-0.68053 3.34875,0.0189 4.02928,1.56185"
       id="path5067"
       inkscape:connector-curvature="0" />
    <path
       style="fill:#ffffff;fill-opacity:1;fill-rule:nonzero;stroke:none"
       d="m 601.51821,237.00899 c 0.68053,1.54434 -0.0189,3.34606 -1.5632,4.02794 -1.54703,0.68187 -3.34875,-0.0175 -4.02793,-1.56186 -0.68188,-1.54298 0.0148,-3.3474 1.56185,-4.02927 1.54433,-0.68188 3.3474,0.0189 4.02928,1.56319"
       id="path5065"
       inkscape:connector-curvature="0" />
    <path
       style="fill:#ffffff;fill-opacity:1;fill-rule:nonzero;stroke:none"
       d="m 596.69237,193.7968 c 0.68053,1.54433 -0.0203,3.34875 -1.56455,4.02928 -1.54433,0.68188 -3.34605,-0.0203 -4.02658,-1.5632 -0.68053,-1.54299 0.0162,-3.34605 1.5605,-4.02793 1.54433,-0.68053 3.34875,0.0189 4.03063,1.56185"
       id="path5063"
       inkscape:connector-curvature="0" />
    <path
       style="fill:#ffffff;fill-opacity:1;fill-rule:nonzero;stroke:none"
       d="m 590.2993,31.533298 c 0.68187,1.542984 -0.0162,3.346053 -1.56051,4.027931 -1.54837,0.681878 -3.35144,-0.01887 -4.03062,-1.561851 -0.68053,-1.542985 0.0162,-3.347401 1.56454,-4.029279 1.54434,-0.681878 3.34606,0.01887 4.02659,1.563199"
       id="path5059"
       inkscape:connector-curvature="0" />
    <path
       style="fill:#ffffff;fill-opacity:1;fill-rule:nonzero;stroke:none"
       d="m 629.25825,43.296365 c 0.68053,1.542985 -0.0176,3.346053 -1.56455,4.029279 -1.54703,0.681878 -3.34875,-0.01887 -4.02793,-1.561851 -0.68188,-1.544332 0.0148,-3.347401 1.56185,-4.029279 1.54703,-0.683225 3.34875,0.01752 4.03063,1.561851"
       id="path5057"
       inkscape:connector-curvature="0" />
    <path
       style="fill:#ffffff;fill-opacity:1;fill-rule:nonzero;stroke:none"
       d="m 588.15812,69.585456 c 0.68188,1.542985 -0.0189,3.347401 -1.56454,4.029279 -1.54299,0.68053 -3.3474,-0.02021 -4.02658,-1.563199 -0.68054,-1.542984 0.0176,-3.3474 1.5605,-4.027931 1.54568,-0.681878 3.35009,0.01752 4.03062,1.561851"
       id="path5055"
       inkscape:connector-curvature="0" />
    <path
       style="fill:#ffffff;fill-opacity:1;fill-rule:nonzero;stroke:none"
       d="m 641.44702,66.715235 c 0.68188,1.544332 -0.0202,3.348749 -1.56589,4.030626 -1.54299,0.680531 -3.34606,-0.02021 -4.02659,-1.563198 -0.68053,-1.544332 0.0176,-3.347401 1.56051,-4.027931 1.54568,-0.681878 3.35144,0.01752 4.03197,1.560503"
       id="path5053"
       inkscape:connector-curvature="0" />
    <path
       style="fill:#ffffff;fill-opacity:1;fill-rule:nonzero;stroke:none"
       d="m 595.71201,116.60687 c 0.68053,1.54298 -0.0216,3.3474 -1.5659,4.02928 -1.54433,0.68053 -3.34605,-0.0202 -4.02523,-1.5632 -0.68188,-1.54299 0.0149,-3.3474 1.55915,-4.02793 1.54433,-0.68188 3.35145,0.0175 4.03198,1.56185"
       id="path5051"
       inkscape:connector-curvature="0" />
    <path
       style="fill:#ffffff;fill-opacity:1;fill-rule:nonzero;stroke:none"
       d="m 622.37546,102.36963 c 0.68053,1.54299 -0.0203,3.3474 -1.56455,4.02928 -1.54433,0.68053 -3.3474,-0.0202 -4.02658,-1.5632 -0.68053,-1.54298 0.0162,-3.34605 1.5605,-4.02793 1.54568,-0.68188 3.3501,0.0175 4.03063,1.56185"
       id="path5049"
       inkscape:connector-curvature="0" />
    <path
       style="fill:#ffffff;fill-opacity:1;fill-rule:nonzero;stroke:none"
       d="m 578.28558,155.12287 c 0.68188,1.54433 -0.0162,3.3474 -1.5632,4.02928 -1.54568,0.68188 -3.3474,-0.0189 -4.02793,-1.5632 -0.68053,-1.54298 0.0162,-3.34605 1.56185,-4.02793 1.54703,-0.68188 3.34875,0.0189 4.02928,1.56185"
       id="path5047"
       inkscape:connector-curvature="0" />
    <path
       style="fill:#ffffff;fill-opacity:1;fill-rule:nonzero;stroke:none"
       d="m 606.92957,164.1033 c 0.68053,1.54434 -0.0202,3.34875 -1.56589,4.03063 -1.54433,0.68188 -3.3474,-0.0203 -4.02658,-1.56455 -0.68054,-1.54163 0.0162,-3.34605 1.5605,-4.02658 1.54568,-0.68322 3.35144,0.0176 4.03197,1.5605"
       id="path5045"
       inkscape:connector-curvature="0" />
    <path
       style="fill:#ffffff;fill-opacity:1;fill-rule:nonzero;stroke:none"
       d="m 542.92333,195.6721 c 0.68188,1.54433 -0.0189,3.3474 -1.5632,4.02928 -1.54433,0.68053 -3.34605,-0.0189 -4.02658,-1.5632 -0.68053,-1.54299 0.0162,-3.3474 1.55916,-4.02928 1.54702,-0.68188 3.35009,0.0189 4.03062,1.5632"
       id="path5043"
       inkscape:connector-curvature="0" />
    <path
       style="fill:#ffffff;fill-opacity:1;fill-rule:nonzero;stroke:none"
       d="m 511.79723,193.6797 c 0.68053,1.54298 -0.0203,3.3474 -1.56455,4.02928 -1.54298,0.68053 -3.34605,-0.0216 -4.02523,-1.5632 -0.68188,-1.54433 0.0162,-3.3474 1.55915,-4.02793 1.54568,-0.68188 3.3501,0.0176 4.03063,1.56185"
       id="path5041"
       inkscape:connector-curvature="0" />
    <path
       style="fill:#ffffff;fill-opacity:1;fill-rule:nonzero;stroke:none"
       d="m 530.45683,153.53905 c 0.68053,1.54298 -0.0189,3.3474 -1.56186,4.02793 -1.54298,0.68053 -3.34874,-0.0189 -4.02793,-1.56185 -0.68187,-1.54433 0.0189,-3.3474 1.56185,-4.02928 1.54299,-0.68053 3.34741,0.0189 4.02794,1.5632"
       id="path5039"
       inkscape:connector-curvature="0" />
    <path
       style="fill:#ffffff;fill-opacity:1;fill-rule:nonzero;stroke:none"
       d="m 538.63047,54.12448 c 0.68053,1.544332 -0.0202,3.348748 -1.5632,4.029279 -1.54299,0.68053 -3.3474,-0.01887 -4.02793,-1.561851 -0.68053,-1.542985 0.0189,-3.348748 1.5632,-4.029279 1.54163,-0.68053 3.3474,0.01887 4.02793,1.561851"
       id="path5037"
       inkscape:connector-curvature="0" />
    <path
       style="fill:#ffffff;fill-opacity:1;fill-rule:nonzero;stroke:none"
       d="m 555.58321,59.466036 c 0.68188,1.542985 -0.0189,3.347401 -1.56319,4.029279 -1.54434,0.68053 -3.34741,-0.02021 -4.02659,-1.563199 -0.68053,-1.542984 0.0162,-3.347401 1.56051,-4.027931 1.54433,-0.681878 3.34874,0.01887 4.02927,1.561851"
       id="path5035"
       inkscape:connector-curvature="0" />
    <path
       style="fill:#ffffff;fill-opacity:1;fill-rule:nonzero;stroke:none"
       d="m 569.92233,112.89697 c 0.68053,1.54298 -0.0189,3.34605 -1.5632,4.02793 -1.54838,0.68322 -3.3501,-0.0175 -4.02928,-1.56185 -0.68188,-1.54299 0.0162,-3.34606 1.5632,-4.02928 1.54433,-0.68188 3.3474,0.0189 4.02928,1.5632"
       id="path5033"
       inkscape:connector-curvature="0" />
    <path
       style="fill:#ffffff;fill-opacity:1;fill-rule:nonzero;stroke:none"
       d="m 548.65447,112.30875 c 0.68053,1.54299 -0.0202,3.34875 -1.56185,4.02793 -1.54433,0.68188 -3.35144,-0.0189 -4.03063,-1.5605 -0.68053,-1.54433 0.0202,-3.3501 1.56455,-4.03063 1.54164,-0.68053 3.3474,0.0189 4.02793,1.5632"
       id="path5031"
       inkscape:connector-curvature="0" />
    <path
       style="fill:#ffffff;fill-opacity:1;fill-rule:nonzero;stroke:none"
       d="m 522.20084,111.66784 c 0.68053,1.54433 -0.0189,3.34875 -1.56185,4.02928 -1.54298,0.68053 -3.34875,-0.0202 -4.02928,-1.5632 -0.67918,-1.54299 0.0202,-3.3474 1.5632,-4.02928 1.54298,-0.68053 3.3474,0.0202 4.02793,1.5632"
       id="path5029"
       inkscape:connector-curvature="0" />
    <path
       style="fill:#ffffff;fill-opacity:1;fill-rule:nonzero;stroke:none"
       d="m 494.45232,135.41187 c 0.68053,1.54434 -0.0189,3.34741 -1.5632,4.02928 -1.54298,0.68053 -3.34605,-0.0202 -4.02658,-1.56319 -0.68053,-1.54299 0.0176,-3.34741 1.56185,-4.02794 1.54299,-0.68187 3.3474,0.0189 4.02793,1.56185"
       id="path5027"
       inkscape:connector-curvature="0" />
    <path
       style="fill:#ffffff;fill-opacity:1;fill-rule:nonzero;stroke:none"
       d="m 506.81952,90.251882 c 0.68053,1.542985 -0.0189,3.347398 -1.56455,4.029278 -1.54298,0.68053 -3.34605,-0.0202 -4.02523,-1.5632 -0.68188,-1.54433 0.0162,-3.347398 1.55915,-4.027929 1.54568,-0.681878 3.3501,0.01752 4.03063,1.561851"
       id="path5025"
       inkscape:connector-curvature="0" />
    <path
       style="fill:#ffffff;fill-opacity:1;fill-rule:nonzero;stroke:none"
       d="m 545.83951,113.7504 -26.79134,-2.34615 0.0363,-0.41775 26.79134,2.34615 -0.0364,0.41775 z"
       id="path5023"
       inkscape:connector-curvature="0" />
    <path
       style="fill:#ffffff;fill-opacity:1;fill-rule:nonzero;stroke:none"
       d="m 490.75832,136.993 -0.2749,-0.31668 28.85853,-25.07856 0.27625,0.31534 -28.85988,25.0799 z"
       id="path5021"
       inkscape:connector-curvature="0" />
    <path
       style="fill:#ffffff;fill-opacity:1;fill-rule:nonzero;stroke:none"
       d="m 519.6814,111.81 -0.40158,-0.11185 15.46353,-56.062222 0.40158,0.110502 L 519.6814,111.81 Z"
       id="path5019"
       inkscape:connector-curvature="0" />
    <path
       style="fill:#ffffff;fill-opacity:1;fill-rule:nonzero;stroke:none"
       d="m 658.84326,56.454454 -33.89041,-13.602521 0.15497,-0.386757 33.89176,13.602521 -0.15632,0.386757 z"
       id="path5017"
       inkscape:connector-curvature="0" />
    <path
       style="fill:#ffffff;fill-opacity:1;fill-rule:nonzero;stroke:none"
       d="m 539.30493,197.66787 -47.00915,-59.17515 0.32476,-0.25873 47.0105,59.1738 -0.32611,0.26008 z"
       id="path5015"
       inkscape:connector-curvature="0" />
    <path
       style="fill:#ffffff;fill-opacity:1;fill-rule:nonzero;stroke:none"
       d="m 540.03788,194.34041 -0.30859,-0.28299 34.8418,-38.1636 0.3086,0.28164 -34.84181,38.16495 z"
       id="path5013"
       inkscape:connector-curvature="0" />
    <path
       style="fill:#ffffff;fill-opacity:1;fill-rule:nonzero;stroke:none"
       d="m 574.72175,156.24406 -47.07787,-0.63875 0.004,-0.4191 47.07922,0.6401 -0.005,0.41775 z"
       id="path5011"
       inkscape:connector-curvature="0" />
    <path
       style="fill:#ffffff;fill-opacity:1;fill-rule:nonzero;stroke:none"
       d="m 552.68928,228.28796 -0.252,-0.3315 42.02578,-32.21267 0.25335,0.33016 -42.02713,32.21401 z"
       id="path5009"
       inkscape:connector-curvature="0" />
    <path
       style="fill:#ffffff;fill-opacity:1;fill-rule:nonzero;stroke:none"
       d="m 598.79798,238.73175 -0.41506,0.0444 -4.84053,-44.75599 0.41237,-0.0417 4.84322,44.7533 z"
       id="path5007"
       inkscape:connector-curvature="0" />
    <path
       style="fill:#ffffff;fill-opacity:1;fill-rule:nonzero;stroke:none"
       d="m 636.70284,206.81339 -42.16323,-10.70252 0.10241,-0.40427 42.16459,10.70521 -0.10382,0.40158 z"
       id="path5005"
       inkscape:connector-curvature="0" />
    <path
       style="fill:#ffffff;fill-opacity:1;fill-rule:nonzero;stroke:none"
       d="m 597.83082,239.30811 -0.26682,-0.31937 39.0584,-32.53609 0.26412,0.31937 -39.0557,32.53609 z"
       id="path5003"
       inkscape:connector-curvature="0" />
    <path
       style="fill:#ffffff;fill-opacity:1;fill-rule:nonzero;stroke:none"
       d="m 655.80594,215.31221 -0.40832,0.0876 -8.63937,-40.26449 0.40697,-0.0876 8.64072,40.26449 z"
       id="path5001"
       inkscape:connector-curvature="0" />
    <path
       style="fill:#ffffff;fill-opacity:1;fill-rule:nonzero;stroke:none"
       d="m 697.16251,133.38322 -15.03501,-19.34323 0.33016,-0.2547 15.03635,19.34324 -0.3315,0.25469 z"
       id="path4999"
       inkscape:connector-curvature="0" />
    <path
       style="fill:#ffffff;fill-opacity:1;fill-rule:nonzero;stroke:none"
       d="m 647.14258,175.19581 -0.3598,-0.21022 35.33098,-61.17766 0.36115,0.20888 -35.33233,61.179 z"
       id="path4997"
       inkscape:connector-curvature="0" />
    <path
       style="fill:#ffffff;fill-opacity:1;fill-rule:nonzero;stroke:none"
       d="m 647.15338,175.00634 -0.38271,0.16845 -14.30866,-32.44445 0.38272,-0.1698 14.30865,32.4458 z"
       id="path4995"
       inkscape:connector-curvature="0" />
    <path
       style="fill:#ffffff;fill-opacity:1;fill-rule:nonzero;stroke:none"
       d="m 647.02969,175.28664 -53.21209,18.91066 -0.13745,-0.39484 53.21343,-18.90931 0.13611,0.39349 z"
       id="path4993"
       inkscape:connector-curvature="0" />
    <path
       style="fill:#ffffff;fill-opacity:1;fill-rule:nonzero;stroke:none"
       d="m 593.94616,194.07319 -0.39349,-0.14688 10.53946,-27.9004 0.39349,0.14689 -10.53946,27.90039 z"
       id="path4991"
       inkscape:connector-curvature="0" />
    <path
       style="fill:#ffffff;fill-opacity:1;fill-rule:nonzero;stroke:none"
       d="m 593.56047,194.09419 -19.02251,-37.96551 0.37329,-0.18732 19.02385,37.96416 -0.37463,0.18867 z"
       id="path4989"
       inkscape:connector-curvature="0" />
    <path
       style="fill:#ffffff;fill-opacity:1;fill-rule:nonzero;stroke:none"
       d="m 632.75498,142.8268 -0.20483,-0.3625 49.64098,-28.73321 0.20618,0.36385 -49.64233,28.73186 z"
       id="path4987"
       inkscape:connector-curvature="0" />
    <path
       style="fill:#ffffff;fill-opacity:1;fill-rule:nonzero;stroke:none"
       d="m 682.26417,114.11893 -61.81911,-9.21209 0.062,-0.41371 61.81776,9.21343 -0.0606,0.41237 z"
       id="path4985"
       inkscape:connector-curvature="0" />
    <path
       style="fill:#ffffff;fill-opacity:1;fill-rule:nonzero;stroke:none"
       d="m 682.48801,113.83392 -0.38811,0.15632 -22.78227,-56.824963 0.38811,-0.156319 22.78227,56.824962 z"
       id="path4983"
       inkscape:connector-curvature="0" />
    <path
       style="fill:#ffffff;fill-opacity:1;fill-rule:nonzero;stroke:none"
       d="m 620.78465,101.73072 -0.31668,-0.27221 38.88591,-44.50669 0.31533,0.272212 -38.88456,44.506688 z"
       id="path4981"
       inkscape:connector-curvature="0" />
    <path
       style="fill:#ffffff;fill-opacity:1;fill-rule:nonzero;stroke:none"
       d="m 586.37772,72.08843 -0.23448,-0.344981 41.00027,-28.101188 0.23582,0.343634 -41.00161,28.102535 z"
       id="path4979"
       inkscape:connector-curvature="0" />
    <path
       style="fill:#ffffff;fill-opacity:1;fill-rule:nonzero;stroke:none"
       d="m 586.19484,72.11538 -34.36476,-10.883095 0.12937,-0.398886 34.36611,10.884443 -0.13072,0.397538 z"
       id="path4977"
       inkscape:connector-curvature="0" />
    <path
       style="fill:#ffffff;fill-opacity:1;fill-rule:nonzero;stroke:none"
       d="m 574.92863,155.9927 -0.40697,0.0836 -8.75795,-42.10664 0.40832,-0.0836 8.7566,42.10664 z"
       id="path4975"
       inkscape:connector-curvature="0" />
    <path
       style="fill:#ffffff;fill-opacity:1;fill-rule:nonzero;stroke:none"
       d="m 566.15613,114.01947 -0.37463,-0.18192 20.28924,-42.012307 0.37867,0.180576 -20.29328,42.013651 z"
       id="path4973"
       inkscape:connector-curvature="0" />
    <path
       style="fill:#ffffff;fill-opacity:1;fill-rule:nonzero;stroke:none"
       d="m 617.22083,104.69365 -31.11169,-32.634466 0.30186,-0.287036 31.11034,32.634462 -0.30051,0.28704 z"
       id="path4971"
       inkscape:connector-curvature="0" />
    <path
       style="fill:#ffffff;fill-opacity:1;fill-rule:nonzero;stroke:none"
       d="m 574.8851,156.16776 -0.31803,-0.26548 42.64433,-51.48583 0.31937,0.26548 -42.64567,51.48583 z"
       id="path4969"
       inkscape:connector-curvature="0" />
    <path
       style="fill:#ffffff;fill-opacity:1;fill-rule:nonzero;stroke:none"
       d="m 604.2227,166.29633 -29.56466,-10.06376 0.13341,-0.39484 29.56332,10.06511 -0.13207,0.39349 z"
       id="path4967"
       inkscape:connector-curvature="0" />
    <path
       style="fill:#ffffff;fill-opacity:1;fill-rule:nonzero;stroke:none"
       d="m 604.42147,166.26023 -0.26548,-0.32207 28.36262,-23.45337 0.26682,0.32207 -28.36396,23.45337 z"
       id="path4965"
       inkscape:connector-curvature="0" />
    <path
       style="fill:#ffffff;fill-opacity:1;fill-rule:nonzero;stroke:none"
       d="m 632.85107,142.58208 -0.39485,0.12668 -12.17677,-37.9453 0.39619,-0.12667 12.17543,37.94529 z"
       id="path4963"
       inkscape:connector-curvature="0" />
    <path
       style="fill:#ffffff;fill-opacity:1;fill-rule:nonzero;stroke:none"
       d="m 527.29663,156.82767 -0.30321,-0.28434 40.61352,-43.5472 0.30186,0.28569 -40.61217,43.54585 z"
       id="path4961"
       inkscape:connector-curvature="0" />
    <path
       style="fill:#ffffff;fill-opacity:1;fill-rule:nonzero;stroke:none"
       d="m 539.66571,197.47838 -0.39888,0.11994 -12.31962,-40.85339 0.39753,-0.11859 12.32097,40.85204 z"
       id="path4959"
       inkscape:connector-curvature="0" />
    <path
       style="fill:#ffffff;fill-opacity:1;fill-rule:nonzero;stroke:none"
       d="m 527.83877,155.47551 -0.38541,-0.15902 17.81777,-42.74943 0.38541,0.15901 -17.81777,42.74944 z"
       id="path4957"
       inkscape:connector-curvature="0" />
    <path
       style="fill:#ffffff;fill-opacity:1;fill-rule:nonzero;stroke:none"
       d="m 546.06863,113.5636 -0.4191,-0.0445 5.80809,-53.831977 0.41775,0.04447 -5.80674,53.831977 z"
       id="path4955"
       inkscape:connector-curvature="0" />
    <path
       style="fill:#ffffff;fill-opacity:1;fill-rule:nonzero;stroke:none"
       d="m 567.11022,114.33805 -21.65974,-1.48234 0.027,-0.4164 21.66108,1.48234 -0.0284,0.4164 z"
       id="path4953"
       inkscape:connector-curvature="0" />
    <path
       style="fill:#ffffff;fill-opacity:1;fill-rule:nonzero;stroke:none"
       d="m 546.06337,113.50296 -0.41102,0.0782 -10.91409,-57.85182 0.40967,-0.07547 10.91544,57.84912 z"
       id="path4951"
       inkscape:connector-curvature="0" />
    <path
       style="fill:#ffffff;fill-opacity:1;fill-rule:nonzero;stroke:none"
       d="m 545.7607,113.72733 -41.67945,-21.851092 0.1927,-0.371934 41.68215,21.852436 -0.1954,0.37059 z"
       id="path4949"
       inkscape:connector-curvature="0" />
    <path
       style="fill:#ffffff;fill-opacity:1;fill-rule:nonzero;stroke:none"
       d="m 545.93966,113.73533 -55.23616,23.29301 -0.16306,-0.38406 55.23616,-23.29436 0.16306,0.38541 z"
       id="path4947"
       inkscape:connector-curvature="0" />
    <path
       style="fill:#ffffff;fill-opacity:1;fill-rule:nonzero;stroke:none"
       d="m 527.55254,155.5835 -37.02489,-18.56163 0.18731,-0.37328 37.0249,18.56163 -0.18732,0.37328 z"
       id="path4945"
       inkscape:connector-curvature="0" />
    <path
       style="fill:#ffffff;fill-opacity:1;fill-rule:nonzero;stroke:none"
       d="m 508.66668,195.98343 -0.37867,-0.17384 19.07237,-41.52178 0.38001,0.17384 -19.07371,41.52178 z"
       id="path4943"
       inkscape:connector-curvature="0" />
    <path
       style="fill:#ffffff;fill-opacity:1;fill-rule:nonzero;stroke:none"
       d="m 539.44848,197.7462 -31.51597,-2.83397 0.0377,-0.41371 31.51462,2.83397 -0.0364,0.41371 z"
       id="path4941"
       inkscape:connector-curvature="0" />
    <path
       style="fill:#ffffff;fill-opacity:1;fill-rule:nonzero;stroke:none"
       d="m 551.54588,229.25327 -0.39215,0.14554 -11.88165,-31.78683 0.39214,-0.14689 11.88166,31.78818 z"
       id="path4939"
       inkscape:connector-curvature="0" />
    <path
       style="fill:#ffffff;fill-opacity:1;fill-rule:nonzero;stroke:none"
       d="m 597.66118,239.35491 -46.9795,-8.83207 0.0742,-0.40967 46.97681,8.82938 -0.0714,0.41236 z"
       id="path4937"
       inkscape:connector-curvature="0" />
    <path
       style="fill:#ffffff;fill-opacity:1;fill-rule:nonzero;stroke:none"
       d="m 550.58654,230.4785 -42.2414,-34.42136 0.26278,-0.32207 42.2387,34.42136 -0.26008,0.32207 z"
       id="path4935"
       inkscape:connector-curvature="0" />
    <path
       style="fill:#ffffff;fill-opacity:1;fill-rule:nonzero;stroke:none"
       d="m 509.30691,194.8458 -0.39484,0.12398 -18.68157,-60.12385 0.39619,-0.12532 18.68022,60.12519 z"
       id="path4933"
       inkscape:connector-curvature="0" />
    <path
       style="fill:#ffffff;fill-opacity:1;fill-rule:nonzero;stroke:none"
       d="m 490.62885,134.8466 -0.40024,-0.12667 13.74806,-43.091727 0.40024,0.126673 -13.74806,43.091724 z"
       id="path4931"
       inkscape:connector-curvature="0" />
    <path
       style="fill:#ffffff;fill-opacity:1;fill-rule:nonzero;stroke:none"
       d="m 504.33567,91.824548 -0.31803,-0.265474 30.66968,-37.024894 0.31938,0.265474 -30.67103,37.024894 z"
       id="path4929"
       inkscape:connector-curvature="0" />
    <path
       style="fill:#ffffff;fill-opacity:1;fill-rule:nonzero;stroke:none"
       d="m 553.5488,59.4247 -18.64518,-3.52663 0.0795,-0.411013 18.64519,3.525282 -0.0796,0.412361 z"
       id="path4927"
       inkscape:connector-curvature="0" />
    <path
       style="fill:#ffffff;fill-opacity:1;fill-rule:nonzero;stroke:none"
       d="m 586.5936,33.14154 -51.56534,22.741843 -0.16844,-0.382714 51.56533,-22.741843 0.16845,0.382714 z"
       id="path4925"
       inkscape:connector-curvature="0" />
    <path
       style="fill:#ffffff;fill-opacity:1;fill-rule:nonzero;stroke:none"
       d="m 551.7906,59.877354 -0.24795,-0.335549 36.16378,-26.98943 0.24931,0.335549 -36.16514,26.98943 z"
       id="path4923"
       inkscape:connector-curvature="0" />
    <path
       style="fill:#ffffff;fill-opacity:1;fill-rule:nonzero;stroke:none"
       d="m 627.20671,44.016281 -39.43303,-11.096014 0.1132,-0.401581 39.43303,11.096014 -0.1132,0.401581 z"
       id="path4921"
       inkscape:connector-curvature="0" />
    <path
       style="fill:#ffffff;fill-opacity:1;fill-rule:nonzero;stroke:none"
       d="m 627.30805,44.018881 -75.36907,17.21944 -0.0889,-0.408319 75.36772,-17.219439 0.0903,0.408318 z"
       id="path4919"
       inkscape:connector-curvature="0" />
    <path
       style="fill:#ffffff;fill-opacity:1;fill-rule:nonzero;stroke:none"
       d="m 567.3261,114.0716 -0.40023,0.11724 -15.13473,-52.072027 0.40023,-0.118587 15.13473,52.073374 z"
       id="path4917"
       inkscape:connector-curvature="0" />
    <path
       style="fill:#ffffff;fill-opacity:1;fill-rule:nonzero;stroke:none"
       d="m 566.1258,114.0656 -0.31668,-0.27356 61.2949,-70.113501 0.31668,0.272212 -61.2949,70.114849 z"
       id="path4915"
       inkscape:connector-curvature="0" />
    <path
       style="fill:#ffffff;fill-opacity:1;fill-rule:nonzero;stroke:none"
       d="m 619.36066,102.9619 -0.41236,-0.0579 8.10842,-59.117201 0.41101,0.05795 -8.10707,59.117211 z"
       id="path4913"
       inkscape:connector-curvature="0" />
    <path
       style="fill:#ffffff;fill-opacity:1;fill-rule:nonzero;stroke:none"
       d="m 676.33695,76.414202 -49.19089,-32.424239 0.23179,-0.349025 49.19089,32.42424 -0.23179,0.349024 z"
       id="path4911"
       inkscape:connector-curvature="0" />
    <path
       style="fill:#ffffff;fill-opacity:1;fill-rule:nonzero;stroke:none"
       d="m 698.64447,134.11227 -0.39214,0.14958 -21.99394,-57.9475 0.39215,-0.148235 21.99393,57.946155 z"
       id="path4909"
       inkscape:connector-curvature="0" />
    <path
       style="fill:#ffffff;fill-opacity:1;fill-rule:nonzero;stroke:none"
       d="m 674.73415,149.37191 -0.41641,-0.0135 1.9284,-73.125345 0.41505,0.01348 -1.92704,73.125355 z"
       id="path4907"
       inkscape:connector-curvature="0" />
    <path
       style="fill:#ffffff;fill-opacity:1;fill-rule:nonzero;stroke:none"
       d="m 619.23965,103.12441 -0.16845,-0.38271 57.09448,-25.538085 0.16845,0.382715 -57.09448,25.53808 z"
       id="path4905"
       inkscape:connector-curvature="0" />
    <path
       style="fill:#ffffff;fill-opacity:1;fill-rule:nonzero;stroke:none"
       d="m 684.46195,180.2684 -0.40158,0.10781 -8.6744,-31.7801 0.40158,-0.10915 8.6744,31.78144 z"
       id="path4903"
       inkscape:connector-curvature="0" />
    <path
       style="fill:#ffffff;fill-opacity:1;fill-rule:nonzero;stroke:none"
       d="m 656.20741,218.1738 -0.33555,-0.2493 28.22247,-37.72698 0.3342,0.2493 -28.22112,37.72698 z"
       id="path4901"
       inkscape:connector-curvature="0" />
    <path
       style="fill:#ffffff;fill-opacity:1;fill-rule:nonzero;stroke:none"
       d="m 684.4606,180.37822 -0.39888,-0.11185 13.06618,-47.06575 0.40023,0.11185 -13.06753,47.06575 z"
       id="path4899"
       inkscape:connector-curvature="0" />
    <path
       style="fill:#ffffff;fill-opacity:1;fill-rule:nonzero;stroke:none"
       d="m 675.6974,148.71725 -0.22101,-0.35306 22.86178,-14.35448 0.22101,0.35307 -22.86178,14.35447 z"
       id="path4897"
       inkscape:connector-curvature="0" />
    <path
       style="fill:#ffffff;fill-opacity:1;fill-rule:nonzero;stroke:none"
       d="m 674.39186,149.52594 -55.37226,-46.43238 0.26817,-0.32073 55.37226,46.43239 -0.26817,0.32072 z"
       id="path4895"
       inkscape:connector-curvature="0" />
    <path
       style="fill:#ffffff;fill-opacity:1;fill-rule:nonzero;stroke:none"
       d="m 675.63554,148.7442 -71.09588,16.40416 -0.0957,-0.40563 71.09589,-16.40415 0.0957,0.40562 z"
       id="path4893"
       inkscape:connector-curvature="0" />
    <path
       style="fill:#ffffff;fill-opacity:1;fill-rule:nonzero;stroke:none"
       d="m 657.39706,218.30411 -0.40293,-0.1064 18.39318,-69.71057 0.40293,0.10781 -18.39318,69.70921 z"
       id="path4891"
       inkscape:connector-curvature="0" />
    <path
       style="fill:#ffffff;fill-opacity:1;fill-rule:nonzero;stroke:none"
       d="m 636.92926,206.72984 -0.34903,-0.23313 38.8347,-58.07282 0.34499,0.23313 -38.83066,58.07282 z"
       id="path4889"
       inkscape:connector-curvature="0" />
    <path
       style="fill:#ffffff;fill-opacity:1;fill-rule:nonzero;stroke:none"
       d="m 655.93372,218.22771 -19.28394,-11.43561 0.21292,-0.35845 19.28259,11.4356 -0.21157,0.35846 z"
       id="path4887"
       inkscape:connector-curvature="0" />
    <path
       style="fill:#ffffff;fill-opacity:1;fill-rule:nonzero;stroke:none"
       d="m 656.10997,218.24481 -55.99215,20.77706 -0.14284,-0.39484 55.99215,-20.77302 0.14284,0.3908 z"
       id="path4885"
       inkscape:connector-curvature="0" />
    <path
       style="fill:#ffffff;fill-opacity:1;fill-rule:nonzero;stroke:none"
       d="m 598.47054,238.9258 -59.12394,-41.21454 0.24122,-0.34498 59.12529,41.21588 -0.24257,0.34364 z"
       id="path4883"
       inkscape:connector-curvature="0" />
    <path
       style="fill:#ffffff;fill-opacity:1;fill-rule:nonzero;stroke:none"
       d="m 637.72677,207.45362 -98.28071,-9.70665 0.0418,-0.41641 98.28071,9.70666 -0.0417,0.4164 z"
       id="path4881"
       inkscape:connector-curvature="0" />
    <path
       style="fill:#ffffff;fill-opacity:1;fill-rule:nonzero;stroke:none"
       d="m 636.59372,206.74439 -32.46736,-40.51244 0.32342,-0.26278 32.46736,40.51514 -0.32342,0.26008 z"
       id="path4879"
       inkscape:connector-curvature="0" />
    <path
       style="fill:#ffffff;fill-opacity:1;fill-rule:nonzero;stroke:none"
       d="m 604.49128,166.14894 -0.40562,-0.097 14.86521,-63.16669 0.40562,0.0957 -14.86521,63.16804 z"
       id="path4877"
       inkscape:connector-curvature="0" />
    <path
       style="fill:#ffffff;fill-opacity:1;fill-rule:nonzero;stroke:none"
       d="m 619.19626,103.13761 -52.02891,11.19709 -0.085,-0.40832 52.03025,-11.19709 0.0836,0.40832 z"
       id="path4875"
       inkscape:connector-curvature="0" />
    <path
       style="fill:#ffffff;fill-opacity:1;fill-rule:nonzero;stroke:none"
       d="m 602.99761,165.29227 -36.04116,-51.04112 0.33825,-0.23987 36.0425,51.04247 -0.33959,0.23852 z"
       id="path4873"
       inkscape:connector-curvature="0" />
    <path
       style="fill:#ffffff;fill-opacity:1;fill-rule:nonzero;stroke:none"
       d="m 539.561,197.72447 -0.18866,-0.37059 63.70034,-32.36629 0.19,0.37058 -63.70168,32.3663 z"
       id="path4871"
       inkscape:connector-curvature="0" />
    <path
       style="fill:#ffffff;fill-opacity:1;fill-rule:nonzero;stroke:none"
       d="m 539.66643,197.60399 -0.39753,-0.13071 27.65783,-83.40742 0.39619,0.13071 -27.65649,83.40742 z"
       id="path1272"
       inkscape:connector-curvature="0" />
    <path
       inkscape:connector-curvature="0"
       style="display:inline;fill:#ffffff;fill-opacity:1;fill-rule:nonzero;stroke:none"
       d="m 658.63771,216.17988 c 0.68053,1.54434 -0.0189,3.34606 -1.5632,4.02794 -1.54703,0.68187 -3.34875,-0.0175 -4.02793,-1.56186 -0.68188,-1.54298 0.0148,-3.3474 1.56185,-4.02927 1.54433,-0.68188 3.3474,0.0189 4.02928,1.56319"
       id="path5065-3" />
    <path
       inkscape:connector-curvature="0"
       style="display:inline;fill:#ffffff;fill-opacity:1;fill-rule:nonzero;stroke:none"
       d="m 686.94229,179.05679 c 0.68053,1.54434 -0.0189,3.34606 -1.5632,4.02794 -1.54703,0.68187 -3.34875,-0.0175 -4.02793,-1.56186 -0.68188,-1.54298 0.0148,-3.3474 1.56185,-4.02927 1.54433,-0.68188 3.3474,0.0189 4.02928,1.56319"
       id="path5065-6" />
    <path
       inkscape:connector-curvature="0"
       style="display:inline;fill:#ffffff;fill-opacity:1;fill-rule:nonzero;stroke:none"
       d="m 700.05396,132.8423 c 0.68053,1.54434 -0.0189,3.34606 -1.5632,4.02794 -1.54703,0.68187 -3.34875,-0.0175 -4.02793,-1.56186 -0.68188,-1.54298 0.0148,-3.3474 1.56185,-4.02927 1.54433,-0.68188 3.3474,0.0189 4.02928,1.56319"
       id="path5065-7" />
    <path
       inkscape:connector-curvature="0"
       style="display:inline;fill:#ffffff;fill-opacity:1;fill-rule:nonzero;stroke:none"
       d="m 684.64914,112.63926 c 0.68053,1.54434 -0.0189,3.34606 -1.5632,4.02794 -1.54703,0.68187 -3.34875,-0.0175 -4.02793,-1.56186 -0.68188,-1.54298 0.0148,-3.3474 1.56185,-4.02927 1.54433,-0.68188 3.3474,0.0189 4.02928,1.56319"
       id="path5065-5" />
    <path
       inkscape:connector-curvature="0"
       style="display:inline;fill:#ffffff;fill-opacity:1;fill-rule:nonzero;stroke:none"
       d="m 677.83061,147.74206 c 0.68053,1.54434 -0.0189,3.34606 -1.5632,4.02794 -1.54703,0.68187 -3.34875,-0.0175 -4.02793,-1.56186 -0.68188,-1.54298 0.0148,-3.3474 1.56185,-4.02927 1.54433,-0.68188 3.3474,0.0189 4.02928,1.56319"
       id="path5065-35" />
    <path
       inkscape:connector-curvature="0"
       style="display:inline;fill:#ffffff;fill-opacity:1;fill-rule:nonzero;stroke:none"
       d="m 655.85979,129.05423 c 0.68053,1.54434 -0.0189,3.34606 -1.5632,4.02794 -1.54703,0.68187 -3.34875,-0.0175 -4.02793,-1.56186 -0.68188,-1.54298 0.0148,-3.3474 1.56185,-4.02927 1.54433,-0.68188 3.3474,0.0189 4.02928,1.56319"
       id="path5065-62" />
    <path
       inkscape:connector-curvature="0"
       style="display:inline;fill:#ffffff;fill-opacity:1;fill-rule:nonzero;stroke:none"
       d="m 639.69735,205.32075 c 0.68053,1.54434 -0.0189,3.34606 -1.5632,4.02794 -1.54703,0.68187 -3.34875,-0.0175 -4.02793,-1.56186 -0.68188,-1.54298 0.0148,-3.3474 1.56185,-4.02927 1.54433,-0.68188 3.3474,0.0189 4.02928,1.56319"
       id="path5065-9" />
    <path
       inkscape:connector-curvature="0"
       style="display:inline;fill:#ffffff;fill-opacity:1;fill-rule:nonzero;stroke:none"
       d="m 649.79887,173.75348 c 0.68053,1.54434 -0.0189,3.34606 -1.5632,4.02794 -1.54703,0.68187 -3.34875,-0.0175 -4.02793,-1.56186 -0.68188,-1.54298 0.0148,-3.3474 1.56185,-4.02927 1.54433,-0.68188 3.3474,0.0189 4.02928,1.56319"
       id="path5065-1" />
  </g>
  <g
     inkscape:groupmode="layer"
     id="layer3"
     inkscape:label="Balls"
     sodipodi:insensitive="true"
     style="display:none"
     transform="translate(-488.60196,-29.709156)">
    <path
       style="display:inline;fill:#ffffff;fill-opacity:1;fill-rule:nonzero;stroke:none"
       d="m 686.32913,112.75615 c 0.68053,1.54298 -0.0176,3.34605 -1.56319,4.02928 -1.54568,0.68053 -3.34875,-0.0189 -4.02794,-1.5632 -0.68187,-1.54299 0.0162,-3.3474 1.56185,-4.02928 1.54568,-0.68188 3.34741,0.0202 4.02928,1.5632"
       id="path5075"
       inkscape:connector-curvature="0" />
    <path
       style="display:inline;fill:#ffffff;fill-opacity:1;fill-rule:nonzero;stroke:none"
       d="m 700.41437,131.83161 c 0.68053,1.54433 -0.0216,3.3474 -1.56589,4.02928 -1.54433,0.68188 -3.34606,-0.0189 -4.02524,-1.5632 -0.68053,-1.54164 0.0162,-3.34605 1.5605,-4.02658 1.54434,-0.68188 3.3501,0.0176 4.03063,1.5605"
       id="path5083"
       inkscape:connector-curvature="0" />
    <path
       style="display:inline;fill:#ffffff;fill-opacity:1;fill-rule:nonzero;stroke:none"
       d="m 687.05697,179.08859 c 0.68053,1.54433 -0.0176,3.3474 -1.5632,4.02928 -1.54568,0.68188 -3.3474,-0.0189 -4.02793,-1.5632 -0.68053,-1.54299 0.0162,-3.3474 1.56185,-4.02928 1.54568,-0.68188 3.3474,0.0203 4.02928,1.5632"
       id="path5085"
       inkscape:connector-curvature="0" />
    <path
       style="display:inline;fill:#ffffff;fill-opacity:1;fill-rule:nonzero;stroke:none"
       d="m 677.31851,148.13295 c 0.68053,1.54298 -0.0175,3.3474 -1.5605,4.02793 -1.54568,0.68188 -3.3501,-0.0189 -4.02928,-1.56185 -0.68053,-1.54299 0.0189,-3.3474 1.56455,-4.02928 1.54298,-0.68188 3.3447,0.0203 4.02523,1.5632"
       id="path5073"
       inkscape:connector-curvature="0" />
    <path
       style="display:inline;fill:#ffffff;fill-opacity:1;fill-rule:nonzero;stroke:none"
       d="m 639.54935,205.38024 c 0.68053,1.54433 -0.0189,3.3474 -1.5605,4.02793 -1.54703,0.68188 -3.35144,-0.0176 -4.03063,-1.56185 -0.68188,-1.54299 0.0175,-3.3474 1.56455,-4.02928 1.54164,-0.68053 3.3447,0.0189 4.02658,1.5632"
       id="path5071"
       inkscape:connector-curvature="0" />
    <path
       style="display:inline;fill:#ffffff;fill-opacity:1;fill-rule:nonzero;stroke:none"
       d="m 659.09983,216.53082 c 0.68188,1.54434 -0.0189,3.34875 -1.56185,4.02928 -1.54433,0.68053 -3.34875,-0.0175 -4.02928,-1.56319 -0.68053,-1.54164 0.0189,-3.34741 1.5632,-4.02794 1.54299,-0.68053 3.3474,0.0189 4.02793,1.56185"
       id="path5069"
       inkscape:connector-curvature="0" />
    <path
       style="display:inline;fill:#ffffff;fill-opacity:1;fill-rule:nonzero;stroke:none"
       d="m 655.87427,129.5267 c 0.68053,1.54299 -0.0189,3.34875 -1.56186,4.02928 -1.54433,0.68053 -3.35009,-0.0203 -4.02927,-1.5632 -0.68053,-1.54298 0.0189,-3.3474 1.56319,-4.02793 1.54299,-0.68053 3.3474,0.0189 4.02794,1.56185"
       id="path5087"
       inkscape:connector-curvature="0" />
    <path
       style="display:inline;fill:#ffffff;fill-opacity:1;fill-rule:nonzero;stroke:none"
       d="m 649.06397,172.97904 c 0.68053,1.54433 -0.0189,3.3474 -1.5632,4.02928 -1.54433,0.68053 -3.3474,-0.0203 -4.02658,-1.5632 -0.68053,-1.54433 0.0162,-3.3474 1.5605,-4.02928 1.54299,-0.68053 3.34875,0.0189 4.02928,1.5632"
       id="path5061"
       inkscape:connector-curvature="0" />
  </g>
  <g
     style="display:none"
     inkscape:label="Text copy copy"
     inkscape:groupmode="layer"
     id="g4645"
     transform="translate(-488.60196,-632.07131)"
     sodipodi:insensitive="true">
    <path
       style="font-style:normal;font-variant:normal;font-weight:300;font-stretch:normal;font-size:66.80889893px;line-height:0%;font-family:Orbitron;-inkscape-font-specification:'Orbitron Light';letter-spacing:1.89367568px;word-spacing:0px;fill:#0000ff;fill-opacity:1;stroke:none;stroke-width:1px;stroke-linecap:butt;stroke-linejoin:miter;stroke-opacity:1"
       d="m 635.65039,706.01758 c -4.86954,-0.37846 -9.21729,4.27816 -7.5,9.07812 -0.8566,1.48445 1.69137,11.5632 -1.1543,7.92969 -7.49755,-7.10421 -18.28819,-2.62474 -27.25586,-4.06836 -5.0892,-0.0118 -10.96323,-0.22177 -14.96875,3.46875 1.49357,-4.04364 2.93297,-8.1068 4.36133,-12.17383 -7.04861,-1.00444 -17.49532,-2.73378 -21.14843,5.31836 -1.79092,7.19387 -4.35608,14.17037 -7.09766,21.0586 -3.2225,-8.83014 -6.4462,-17.65984 -9.66797,-26.49024 -6.81881,-2.14958 -17.29772,-0.65885 -18.53516,7.83399 -1.54233,6.43191 -4.15359,12.5283 -6.44921,18.71093 -3.38953,-9.28378 -6.77737,-18.56817 -10.16797,-27.85156 -4.88046,2.69298 -13.16588,-2.29021 -15.92774,4.30469 -0.45611,6.3644 4.30021,12.27755 5.7236,18.48799 4.564,12.41785 8.98449,24.88738 13.56351,37.29912 7.04279,4.24914 16.621,-1.18133 17.27149,-9.22071 1.97591,-6.61719 4.52721,-12.9329 6.90429,-19.42578 3.91007,9.50283 6.48584,20.25442 11.20703,28.99805 7.16206,3.68901 15.99619,-2.05873 16.69863,-9.82111 2.491,-7.76311 5.27143,-15.4067 8.08653,-23.03436 1.70929,9.8767 -3.38134,22.24518 5.26172,30.00781 8.64,6.31745 19.92191,2.30288 29.68945,3.16797 4.51696,-0.27484 9.19903,1.33323 13.60547,-0.19531 4.94274,0.8524 12.17553,-0.21052 18.16166,0.40493 8.87375,-0.0752 18.44097,1.23515 26.81295,-2.15884 8.13194,-5.12419 6.8465,-15.84905 6.44267,-24.01863 1.12973,-8.38479 0.55586,-20.19989 -8.88408,-23.49504 -8.04956,-2.99242 -17.00865,0.0171 -25.01757,-0.81836 -1.11301,-4.07123 2.20552,-10.4647 -3.4336,-12.40039 -2.08033,-0.86358 -4.37064,-0.85699 -6.58203,-0.89648 z m 23.83399,30.46875 c 4.5908,-1.23712 1.75166,4.27066 2.55078,6.85547 -0.58512,3.26583 2.62777,10.42531 -3.0586,8.91015 -4.42115,0.089 -8.8508,0.31399 -13.26953,0.0293 -0.0121,-5.24774 -0.32875,-10.49859 -0.0488,-15.74414 4.60989,-0.0568 9.21616,0.0452 13.82618,-0.0508 z m -31.33399,16.66992 c 0.53886,1.18971 -1.62229,-0.62183 0,0 z"
       id="path4674"
       inkscape:connector-curvature="0" />
  </g>
  <g
     transform="translate(-488.60196,-632.07131)"
     id="g3831"
     inkscape:groupmode="layer"
     inkscape:label="Text copy"
     style="display:none"
     sodipodi:insensitive="true">
    <text
       sodipodi:linespacing="0%"
       id="text3833"
       y="763.79071"
       x="62.059368"
       style="font-style:normal;font-weight:normal;font-size:66.80889893px;line-height:0%;font-family:sans-serif;letter-spacing:0px;word-spacing:0px;fill:#000000;fill-opacity:1;stroke:none;stroke-width:1px;stroke-linecap:butt;stroke-linejoin:miter;stroke-opacity:1"
       xml:space="preserve"><tspan
         dy="0"
         dx="0"
         style="font-style:normal;font-variant:normal;font-weight:300;font-stretch:normal;font-size:66.80889893px;line-height:0%;font-family:Orbitron;-inkscape-font-specification:'Orbitron Light';letter-spacing:1.89367568px;word-spacing:0px;fill:#ffffff"
         y="763.79071"
         x="62.059368"
         id="tspan3835"
         sodipodi:role="line">Defend the Web</tspan></text>
  </g>
</svg>
